EESchema Schematic File Version 2
LIBS:power
LIBS:device
LIBS:transistors
LIBS:conn
LIBS:linear
LIBS:regul
LIBS:74xx
LIBS:cmos4000
LIBS:adc-dac
LIBS:memory
LIBS:xilinx
LIBS:microcontrollers
LIBS:dsp
LIBS:microchip
LIBS:analog_switches
LIBS:motorola
LIBS:texas
LIBS:intel
LIBS:audio
LIBS:interface
LIBS:digital-audio
LIBS:philips
LIBS:display
LIBS:cypress
LIBS:siliconi
LIBS:opto
LIBS:atmel
LIBS:contrib
LIBS:valves
LIBS:varistor
LIBS:tpa6120
LIBS:l7812-L
LIBS:l7812
EELAYER 25 0
EELAYER END
$Descr A4 11693 8268
encoding utf-8
Sheet 1 1
Title ""
Date ""
Rev ""
Comp ""
Comment1 ""
Comment2 ""
Comment3 ""
Comment4 ""
$EndDescr
$Comp
L CONN_01X04 P1
U 1 1 58CA6BAD
P 1950 2800
F 0 "P1" H 1950 3050 50  0000 C CNN
F 1 "CONN_01X04" V 2050 2800 50  0000 C CNN
F 2 "Sockets_MOLEX_KK-System:Socket_MOLEX-KK-RM2-54mm_Lock_4pin_straight" H 1950 2800 50  0001 C CNN
F 3 "" H 1950 2800 50  0000 C CNN
	1    1950 2800
	-1   0    0    1   
$EndComp
$Comp
L C C1
U 1 1 58CA6C80
P 2900 1800
F 0 "C1" H 2925 1900 50  0000 L CNN
F 1 ".1uf" H 2925 1700 50  0000 L CNN
F 2 "Capacitors_ThroughHole:C_Disc_D6_P5" H 2938 1650 50  0001 C CNN
F 3 "" H 2900 1800 50  0000 C CNN
	1    2900 1800
	1    0    0    -1  
$EndComp
$Comp
L C C2
U 1 1 58CA6CA3
P 3900 1800
F 0 "C2" H 3925 1900 50  0000 L CNN
F 1 ".1uf" H 3925 1700 50  0000 L CNN
F 2 "Capacitors_ThroughHole:C_Disc_D6_P5" H 3938 1650 50  0001 C CNN
F 3 "" H 3900 1800 50  0000 C CNN
	1    3900 1800
	1    0    0    -1  
$EndComp
$Comp
L C C9
U 1 1 58CA6CD4
P 2900 2300
F 0 "C9" H 2925 2400 50  0000 L CNN
F 1 ".1uf" H 2925 2200 50  0000 L CNN
F 2 "Capacitors_ThroughHole:C_Disc_D6_P5" H 2938 2150 50  0001 C CNN
F 3 "" H 2900 2300 50  0000 C CNN
	1    2900 2300
	1    0    0    -1  
$EndComp
$Comp
L C C10
U 1 1 58CA6D04
P 3900 2300
F 0 "C10" H 3925 2400 50  0000 L CNN
F 1 ".1uf" H 3925 2200 50  0000 L CNN
F 2 "Capacitors_ThroughHole:C_Disc_D6_P5" H 3938 2150 50  0001 C CNN
F 3 "" H 3900 2300 50  0000 C CNN
	1    3900 2300
	1    0    0    -1  
$EndComp
$Comp
L Diode_Bridge D2
U 1 1 58CA6E48
P 3400 2050
F 0 "D2" H 3150 2350 50  0000 C CNN
F 1 "Diode_Bridge" H 3650 1650 50  0000 C CNN
F 2 "Wire_Pads:SolderWirePad_4xInline_2mmDrill" H 3400 2050 50  0001 C CNN
F 3 "" H 3400 2050 50  0000 C CNN
	1    3400 2050
	1    0    0    -1  
$EndComp
Wire Wire Line
	2900 1650 2900 1500
Wire Wire Line
	2900 1500 5150 1500
Wire Wire Line
	3900 1500 3900 1650
Wire Wire Line
	3400 1650 3400 1500
Connection ~ 3400 1500
Wire Wire Line
	2900 1950 2900 2150
Wire Wire Line
	2650 2050 3000 2050
Connection ~ 2900 2050
Wire Wire Line
	3900 1950 3900 2150
Wire Wire Line
	3800 2050 4150 2050
Connection ~ 3900 2050
Wire Wire Line
	2900 2450 2900 2600
Wire Wire Line
	2900 2600 9150 2600
Wire Wire Line
	3400 2600 3400 2450
Wire Wire Line
	3900 2600 3900 2450
Connection ~ 3400 2600
$Comp
L L7812-H U1
U 1 1 58CA7ABC
P 5700 1950
F 0 "U1" H 5400 2700 60  0000 C CNN
F 1 "L7812-H" H 5700 2550 60  0000 C CNN
F 2 "TO_SOT_Packages_THT:TO-220_Neutral123_Vertical" H 4900 1650 60  0001 C CNN
F 3 "" H 4900 1650 60  0000 C CNN
	1    5700 1950
	1    0    0    -1  
$EndComp
$Comp
L C C4
U 1 1 58CA7B3A
P 4750 2050
F 0 "C4" H 4775 2150 50  0000 L CNN
F 1 ".1uf" H 4775 1950 50  0000 L CNN
F 2 "Capacitors_ThroughHole:C_Disc_D6_P5" H 4788 1900 50  0001 C CNN
F 3 "" H 4750 2050 50  0000 C CNN
	1    4750 2050
	1    0    0    -1  
$EndComp
$Comp
L CP1 C5
U 1 1 58CA7B90
P 5100 2050
F 0 "C5" H 5125 2150 50  0000 L CNN
F 1 ".33uf" H 5125 1950 50  0000 L CNN
F 2 "Capacitors_ThroughHole:C_Disc_D6_P5" H 5100 2050 50  0001 C CNN
F 3 "" H 5100 2050 50  0000 C CNN
	1    5100 2050
	1    0    0    -1  
$EndComp
$Comp
L CP1 C3
U 1 1 58CA7C37
P 4400 2050
F 0 "C3" H 4425 2150 50  0000 L CNN
F 1 "2200uf" H 4425 1950 50  0000 L CNN
F 2 "Capacitors_ThroughHole:C_Disc_D6_P5" H 4400 2050 50  0001 C CNN
F 3 "" H 4400 2050 50  0000 C CNN
	1    4400 2050
	1    0    0    -1  
$EndComp
Connection ~ 3900 1500
Wire Wire Line
	5100 1900 5100 1500
Connection ~ 5100 1500
Wire Wire Line
	4750 1900 4750 1500
Connection ~ 4750 1500
Wire Wire Line
	4400 1900 4400 1500
Connection ~ 4400 1500
Wire Wire Line
	5700 2600 5700 1950
Connection ~ 3900 2600
Wire Wire Line
	5100 2200 5100 2600
Connection ~ 5100 2600
Wire Wire Line
	4750 2200 4750 2600
Connection ~ 4750 2600
Wire Wire Line
	4400 2200 4400 2600
Connection ~ 4400 2600
$Comp
L D D3
U 1 1 58CA80C4
P 6800 2050
F 0 "D3" H 6800 2150 50  0000 C CNN
F 1 "D" H 6800 1950 50  0000 C CNN
F 2 "Diodes_ThroughHole:Diode_DO-41_SOD81_Vertical_AnodeUp" H 6800 2050 50  0001 C CNN
F 3 "" H 6800 2050 50  0000 C CNN
	1    6800 2050
	0    1    1    0   
$EndComp
$Comp
L CP1 C6
U 1 1 58CA812C
P 6400 2050
F 0 "C6" H 6425 2150 50  0000 L CNN
F 1 ".1uf" H 6425 1950 50  0000 L CNN
F 2 "Capacitors_ThroughHole:C_Disc_D6_P5" H 6400 2050 50  0001 C CNN
F 3 "" H 6400 2050 50  0000 C CNN
	1    6400 2050
	1    0    0    -1  
$EndComp
$Comp
L CP1 C8
U 1 1 58CA8188
P 7700 2050
F 0 "C8" H 7725 2150 50  0000 L CNN
F 1 "470uf" H 7725 1950 50  0000 L CNN
F 2 "Capacitors_ThroughHole:C_Disc_D6_P5" H 7700 2050 50  0001 C CNN
F 3 "" H 7700 2050 50  0000 C CNN
	1    7700 2050
	1    0    0    -1  
$EndComp
$Comp
L C C7
U 1 1 58CA81E7
P 7350 2050
F 0 "C7" H 7375 2150 50  0000 L CNN
F 1 "10uf" H 7375 1950 50  0000 L CNN
F 2 "Capacitors_ThroughHole:C_Disc_D6_P5" H 7388 1900 50  0001 C CNN
F 3 "" H 7350 2050 50  0000 C CNN
	1    7350 2050
	1    0    0    -1  
$EndComp
Connection ~ 5700 2600
$Comp
L FUSE F1
U 1 1 58CA8756
P 8250 1500
F 0 "F1" H 8350 1550 50  0000 C CNN
F 1 "1A" H 8150 1450 50  0000 C CNN
F 2 "Fuse_Holders_and_Fuses:Fuseholder5x20_horiz_open_inline_Type-I" H 8250 1500 50  0001 C CNN
F 3 "" H 8250 1500 50  0000 C CNN
	1    8250 1500
	1    0    0    -1  
$EndComp
$Comp
L LED D1
U 1 1 58CA87BF
P 8750 1800
F 0 "D1" H 8750 1900 50  0000 C CNN
F 1 "LED" H 8750 1700 50  0000 C CNN
F 2 "LEDs:LED-5MM" H 8750 1800 50  0001 C CNN
F 3 "" H 8750 1800 50  0000 C CNN
	1    8750 1800
	0    -1   -1   0   
$EndComp
$Comp
L R R1
U 1 1 58CA8834
P 8750 2250
F 0 "R1" V 8830 2250 50  0000 C CNN
F 1 "10K" V 8750 2250 50  0000 C CNN
F 2 "Resistors_ThroughHole:Resistor_Horizontal_RM7mm" V 8680 2250 50  0001 C CNN
F 3 "" H 8750 2250 50  0000 C CNN
	1    8750 2250
	1    0    0    -1  
$EndComp
Wire Wire Line
	8750 2600 8750 2400
Wire Wire Line
	8750 1600 8750 1500
Wire Wire Line
	8750 2000 8750 2100
$Comp
L C C13
U 1 1 58CA9391
P 2900 3300
F 0 "C13" H 2925 3400 50  0000 L CNN
F 1 ".1uf" H 2925 3200 50  0000 L CNN
F 2 "Capacitors_ThroughHole:C_Disc_D6_P5" H 2938 3150 50  0001 C CNN
F 3 "" H 2900 3300 50  0000 C CNN
	1    2900 3300
	1    0    0    -1  
$EndComp
$Comp
L C C14
U 1 1 58CA9397
P 3900 3300
F 0 "C14" H 3925 3400 50  0000 L CNN
F 1 ".1uf" H 3925 3200 50  0000 L CNN
F 2 "Capacitors_ThroughHole:C_Disc_D6_P5" H 3938 3150 50  0001 C CNN
F 3 "" H 3900 3300 50  0000 C CNN
	1    3900 3300
	1    0    0    -1  
$EndComp
$Comp
L C C21
U 1 1 58CA939D
P 2900 3800
F 0 "C21" H 2925 3900 50  0000 L CNN
F 1 ".1uf" H 2925 3700 50  0000 L CNN
F 2 "Capacitors_ThroughHole:C_Disc_D6_P5" H 2938 3650 50  0001 C CNN
F 3 "" H 2900 3800 50  0000 C CNN
	1    2900 3800
	1    0    0    -1  
$EndComp
$Comp
L C C22
U 1 1 58CA93A3
P 3900 3800
F 0 "C22" H 3925 3900 50  0000 L CNN
F 1 ".1uf" H 3925 3700 50  0000 L CNN
F 2 "Capacitors_ThroughHole:C_Disc_D6_P5" H 3938 3650 50  0001 C CNN
F 3 "" H 3900 3800 50  0000 C CNN
	1    3900 3800
	1    0    0    -1  
$EndComp
$Comp
L Diode_Bridge D5
U 1 1 58CA93A9
P 3400 3550
F 0 "D5" H 3150 3850 50  0000 C CNN
F 1 "Diode_Bridge" H 3650 3150 50  0000 C CNN
F 2 "Wire_Pads:SolderWirePad_4xInline_2mmDrill" H 3400 3550 50  0001 C CNN
F 3 "" H 3400 3550 50  0000 C CNN
	1    3400 3550
	1    0    0    -1  
$EndComp
Wire Wire Line
	2900 3150 2900 3000
Wire Wire Line
	3900 3000 3900 3150
Wire Wire Line
	3400 3150 3400 3000
Connection ~ 3400 3000
Wire Wire Line
	2900 3450 2900 3650
Wire Wire Line
	2650 3550 3000 3550
Connection ~ 2900 3550
Wire Wire Line
	3900 3450 3900 3650
Wire Wire Line
	3800 3550 4150 3550
Connection ~ 3900 3550
Wire Wire Line
	2900 3950 2900 4100
Wire Wire Line
	3400 4100 3400 3950
Wire Wire Line
	3900 4100 3900 3950
Connection ~ 3400 4100
$Comp
L C C16
U 1 1 58CA93C5
P 4750 3550
F 0 "C16" H 4775 3650 50  0000 L CNN
F 1 ".1uf" H 4775 3450 50  0000 L CNN
F 2 "Capacitors_ThroughHole:C_Disc_D6_P5" H 4788 3400 50  0001 C CNN
F 3 "" H 4750 3550 50  0000 C CNN
	1    4750 3550
	1    0    0    -1  
$EndComp
$Comp
L CP1 C17
U 1 1 58CA93CB
P 5100 3550
F 0 "C17" H 5125 3650 50  0000 L CNN
F 1 "2.2uf" H 5125 3450 50  0000 L CNN
F 2 "Capacitors_ThroughHole:C_Disc_D6_P5" H 5100 3550 50  0001 C CNN
F 3 "" H 5100 3550 50  0000 C CNN
	1    5100 3550
	1    0    0    -1  
$EndComp
$Comp
L CP1 C15
U 1 1 58CA93D1
P 4400 3550
F 0 "C15" H 4425 3650 50  0000 L CNN
F 1 "2200uf" H 4425 3450 50  0000 L CNN
F 2 "Capacitors_ThroughHole:C_Disc_D6_P5" H 4400 3550 50  0001 C CNN
F 3 "" H 4400 3550 50  0000 C CNN
	1    4400 3550
	1    0    0    -1  
$EndComp
Connection ~ 3900 3000
Wire Wire Line
	5100 3000 5100 3400
Connection ~ 5100 3000
Wire Wire Line
	4750 3000 4750 3400
Connection ~ 4750 3000
Wire Wire Line
	4400 3000 4400 3400
Connection ~ 4400 3000
Connection ~ 3900 4100
Wire Wire Line
	5100 4100 5100 3700
Connection ~ 5100 4100
Wire Wire Line
	4750 4100 4750 3700
Connection ~ 4750 4100
Wire Wire Line
	4400 4100 4400 3700
Connection ~ 4400 4100
$Comp
L D D6
U 1 1 58CA93E6
P 6800 3550
F 0 "D6" H 6800 3650 50  0000 C CNN
F 1 "D" H 6800 3450 50  0000 C CNN
F 2 "Diodes_ThroughHole:Diode_DO-41_SOD81_Vertical_AnodeUp" H 6800 3550 50  0001 C CNN
F 3 "" H 6800 3550 50  0000 C CNN
	1    6800 3550
	0    1    1    0   
$EndComp
$Comp
L CP1 C18
U 1 1 58CA93EC
P 6400 3550
F 0 "C18" H 6425 3650 50  0000 L CNN
F 1 "1uf" H 6425 3450 50  0000 L CNN
F 2 "Capacitors_ThroughHole:C_Disc_D6_P5" H 6400 3550 50  0001 C CNN
F 3 "" H 6400 3550 50  0000 C CNN
	1    6400 3550
	1    0    0    -1  
$EndComp
$Comp
L CP1 C20
U 1 1 58CA93F2
P 7700 3550
F 0 "C20" H 7725 3650 50  0000 L CNN
F 1 "470uf" H 7725 3450 50  0000 L CNN
F 2 "Capacitors_ThroughHole:C_Disc_D6_P5" H 7700 3550 50  0001 C CNN
F 3 "" H 7700 3550 50  0000 C CNN
	1    7700 3550
	1    0    0    -1  
$EndComp
$Comp
L C C19
U 1 1 58CA93F8
P 7350 3550
F 0 "C19" H 7375 3650 50  0000 L CNN
F 1 "19uf" H 7375 3450 50  0000 L CNN
F 2 "Capacitors_ThroughHole:C_Disc_D6_P5" H 7388 3400 50  0001 C CNN
F 3 "" H 7350 3550 50  0000 C CNN
	1    7350 3550
	1    0    0    -1  
$EndComp
$Comp
L FUSE F2
U 1 1 58CA940E
P 8250 3000
F 0 "F2" H 8350 3050 50  0000 C CNN
F 1 "1A" H 8150 2950 50  0000 C CNN
F 2 "Fuse_Holders_and_Fuses:Fuseholder5x20_horiz_open_inline_Type-I" H 8250 3000 50  0001 C CNN
F 3 "" H 8250 3000 50  0000 C CNN
	1    8250 3000
	1    0    0    -1  
$EndComp
$Comp
L LED D4
U 1 1 58CA9414
P 8750 3300
F 0 "D4" H 8750 3400 50  0000 C CNN
F 1 "LED" H 8750 3200 50  0000 C CNN
F 2 "LEDs:LED-5MM" H 8750 3300 50  0001 C CNN
F 3 "" H 8750 3300 50  0000 C CNN
	1    8750 3300
	0    -1   -1   0   
$EndComp
$Comp
L R R2
U 1 1 58CA941A
P 8750 3750
F 0 "R2" V 8830 3750 50  0000 C CNN
F 1 "10K" V 8750 3750 50  0000 C CNN
F 2 "Resistors_ThroughHole:Resistor_Horizontal_RM7mm" V 8680 3750 50  0001 C CNN
F 3 "" H 8750 3750 50  0000 C CNN
	1    8750 3750
	1    0    0    -1  
$EndComp
Wire Wire Line
	8750 4100 8750 3900
Wire Wire Line
	8750 3100 8750 3000
Wire Wire Line
	8750 3500 8750 3600
Wire Wire Line
	2900 4100 5200 4100
$Comp
L L7812-L U2
U 1 1 58CA9A11
P 5750 3650
F 0 "U2" H 5450 2900 60  0000 C CNN
F 1 "L7812-L" H 5750 3050 60  0000 C CNN
F 2 "TO_SOT_Packages_THT:TO-220_Neutral123_Vertical" H 4950 3350 60  0001 C CNN
F 3 "" H 4950 3350 60  0000 C CNN
	1    5750 3650
	1    0    0    -1  
$EndComp
Wire Wire Line
	5750 3000 5750 3650
Connection ~ 5750 3000
$Comp
L GND #PWR2
U 1 1 58CAB15C
P 9400 2850
F 0 "#PWR2" H 9400 2600 50  0001 C CNN
F 1 "GND" H 9400 2700 50  0000 C CNN
F 2 "" H 9400 2850 50  0000 C CNN
F 3 "" H 9400 2850 50  0000 C CNN
	1    9400 2850
	1    0    0    -1  
$EndComp
$Comp
L -12VA #PWR3
U 1 1 58CAB1B2
P 9400 4050
F 0 "#PWR3" H 9400 3900 50  0001 C CNN
F 1 "-12VA" H 9400 4190 50  0000 C CNN
F 2 "" H 9400 4050 50  0000 C CNN
F 3 "" H 9400 4050 50  0000 C CNN
	1    9400 4050
	1    0    0    -1  
$EndComp
$Comp
L +12VA #PWR1
U 1 1 58CAB208
P 9400 1450
F 0 "#PWR1" H 9400 1300 50  0001 C CNN
F 1 "+12VA" H 9400 1590 50  0000 C CNN
F 2 "" H 9400 1450 50  0000 C CNN
F 3 "" H 9400 1450 50  0000 C CNN
	1    9400 1450
	1    0    0    -1  
$EndComp
Wire Wire Line
	4150 2050 4150 2750
Wire Wire Line
	4150 2750 2150 2750
$Comp
L C C11
U 1 1 58CACD4E
P 2450 2600
F 0 "C11" H 2475 2700 50  0000 L CNN
F 1 ".1uf" H 2475 2500 50  0000 L CNN
F 2 "Capacitors_ThroughHole:C_Disc_D6_P5" H 2488 2450 50  0001 C CNN
F 3 "" H 2450 2600 50  0000 C CNN
	1    2450 2600
	1    0    0    -1  
$EndComp
Wire Wire Line
	2150 2650 2250 2650
Wire Wire Line
	2250 2650 2250 2450
Wire Wire Line
	2250 2450 2650 2450
Wire Wire Line
	2650 2450 2650 2050
Connection ~ 2450 2450
Connection ~ 2450 2750
$Comp
L C C12
U 1 1 58CAD090
P 2450 3000
F 0 "C12" H 2475 3100 50  0000 L CNN
F 1 ".1uf" H 2475 2900 50  0000 L CNN
F 2 "Capacitors_ThroughHole:C_Disc_D6_P5" H 2488 2850 50  0001 C CNN
F 3 "" H 2450 3000 50  0000 C CNN
	1    2450 3000
	1    0    0    -1  
$EndComp
Wire Wire Line
	2150 2850 4150 2850
Wire Wire Line
	2150 2950 2250 2950
Wire Wire Line
	2250 2950 2250 3150
Wire Wire Line
	2250 3150 2650 3150
Wire Wire Line
	4150 2850 4150 3550
Connection ~ 2450 2850
Wire Wire Line
	2650 3150 2650 3550
Connection ~ 2450 3150
Wire Wire Line
	9150 2600 9150 3000
Connection ~ 8750 2600
Connection ~ 8750 3000
Wire Wire Line
	9150 2800 9400 2800
Connection ~ 9150 2800
Wire Wire Line
	9400 2800 9400 2850
Wire Wire Line
	9400 1450 9400 1550
Connection ~ 8750 1500
Connection ~ 9400 1500
Wire Wire Line
	9400 4100 9400 4050
Connection ~ 8750 4100
$Comp
L L_Small L1
U 1 1 58CB3E0C
P 7100 1500
F 0 "L1" H 7130 1540 50  0000 L CNN
F 1 "L_Small" H 7130 1460 50  0000 L CNN
F 2 "Wire_Connections_Bridges:WireConnection_2.00mmDrill" H 7100 1500 50  0001 C CNN
F 3 "" H 7100 1500 50  0000 C CNN
	1    7100 1500
	0    -1   -1   0   
$EndComp
$Comp
L L_Small L2
U 1 1 58CB4D4B
P 7100 4100
F 0 "L2" H 7130 4140 50  0000 L CNN
F 1 "L_Small" H 7150 4050 50  0000 L CNN
F 2 "Wire_Connections_Bridges:WireConnection_2.00mmDrill" H 7100 4100 50  0001 C CNN
F 3 "" H 7100 4100 50  0000 C CNN
	1    7100 4100
	0    -1   -1   0   
$EndComp
Wire Wire Line
	6300 4100 7000 4100
Wire Wire Line
	6400 4100 6400 3700
Wire Wire Line
	6800 4100 6800 3700
Connection ~ 6400 4100
Connection ~ 6800 4100
Wire Wire Line
	7200 4100 9400 4100
Wire Wire Line
	7350 4100 7350 3700
Wire Wire Line
	7700 4100 7700 3700
Wire Wire Line
	6400 3000 6400 3400
Wire Wire Line
	2900 3000 8000 3000
Wire Wire Line
	6800 3000 6800 3400
Connection ~ 6400 3000
Wire Wire Line
	7350 3000 7350 3400
Connection ~ 6800 3000
Wire Wire Line
	7700 3000 7700 3400
Connection ~ 7350 3000
Connection ~ 7700 3000
Wire Wire Line
	9150 3000 8500 3000
Wire Wire Line
	7700 2200 7700 2600
Connection ~ 7700 2600
Wire Wire Line
	7700 1500 7700 1900
Wire Wire Line
	7350 1900 7350 1500
Connection ~ 7700 1500
Connection ~ 7350 1500
Wire Wire Line
	7350 2200 7350 2600
Connection ~ 7350 2600
Wire Wire Line
	6800 2200 6800 2600
Connection ~ 6800 2600
Wire Wire Line
	6400 2200 6400 2600
Connection ~ 6400 2600
Wire Wire Line
	6250 1500 7000 1500
Wire Wire Line
	6800 1900 6800 1500
Connection ~ 6800 1500
Wire Wire Line
	6400 1900 6400 1500
Connection ~ 6400 1500
Wire Wire Line
	8500 1500 9400 1500
Wire Wire Line
	7200 1500 8000 1500
$Comp
L TEST_1P W3
U 1 1 58CBEAA4
P 9400 2800
F 0 "W3" H 9400 3070 50  0000 C CNN
F 1 "TEST_1P" H 9400 3000 50  0000 C CNN
F 2 "Wire_Connections_Bridges:WireConnection_1.00mmDrill" H 9600 2800 50  0001 C CNN
F 3 "" H 9600 2800 50  0000 C CNN
	1    9400 2800
	1    0    0    -1  
$EndComp
$Comp
L TEST_1P W2
U 1 1 58CBEB53
P 9400 1550
F 0 "W2" H 9400 1820 50  0000 C CNN
F 1 "TEST_1P" H 9400 1750 50  0000 C CNN
F 2 "Wire_Connections_Bridges:WireConnection_1.00mmDrill" H 9600 1550 50  0001 C CNN
F 3 "" H 9600 1550 50  0000 C CNN
	1    9400 1550
	-1   0    0    1   
$EndComp
$Comp
L TEST_1P W5
U 1 1 58CBEC12
P 9400 4100
F 0 "W5" H 9400 4370 50  0000 C CNN
F 1 "TEST_1P" H 9400 4300 50  0000 C CNN
F 2 "Wire_Connections_Bridges:WireConnection_1.00mmDrill" H 9600 4100 50  0001 C CNN
F 3 "" H 9600 4100 50  0000 C CNN
	1    9400 4100
	-1   0    0    1   
$EndComp
$Comp
L TEST_1P W4
U 1 1 58CBF79C
P 4750 4100
F 0 "W4" H 4750 4370 50  0000 C CNN
F 1 "TEST_1P" H 4750 4300 50  0000 C CNN
F 2 "Wire_Connections_Bridges:WireConnection_1.00mmDrill" H 4950 4100 50  0001 C CNN
F 3 "" H 4950 4100 50  0000 C CNN
	1    4750 4100
	-1   0    0    1   
$EndComp
$Comp
L TEST_1P W1
U 1 1 58CC0631
P 4750 1500
F 0 "W1" H 4750 1770 50  0000 C CNN
F 1 "TEST_1P" H 4750 1700 50  0000 C CNN
F 2 "Wire_Connections_Bridges:WireConnection_1.00mmDrill" H 4950 1500 50  0001 C CNN
F 3 "" H 4950 1500 50  0000 C CNN
	1    4750 1500
	1    0    0    -1  
$EndComp
$Comp
L CONN_01X04 P5
U 1 1 58CC326F
P 5900 6200
F 0 "P5" H 5900 6450 50  0000 C CNN
F 1 "CONN_01X04" V 6000 6200 50  0000 C CNN
F 2 "Wire_Pads:SolderWirePad_single_1-2mmDrill" H 5900 6200 50  0001 C CNN
F 3 "" H 5900 6200 50  0000 C CNN
	1    5900 6200
	1    0    0    -1  
$EndComp
$Comp
L CONN_01X02 P2
U 1 1 58CC3F42
P 1800 6200
F 0 "P2" H 1800 6350 50  0000 C CNN
F 1 "CONN_01X02" V 1900 6200 50  0000 C CNN
F 2 "Sockets_MOLEX_KK-System:Socket_MOLEX-KK-RM2-54mm_Lock_2pin_straight" H 1800 6200 50  0001 C CNN
F 3 "" H 1800 6200 50  0000 C CNN
	1    1800 6200
	-1   0    0    1   
$EndComp
$Comp
L FUSE F3
U 1 1 58CC3FF9
P 2450 5950
F 0 "F3" H 2550 6000 50  0000 C CNN
F 1 ".375A" H 2350 5900 50  0000 C CNN
F 2 "Fuse_Holders_and_Fuses:Fuseholder5x20_horiz_open_inline_Type-I" H 2450 5950 50  0001 C CNN
F 3 "" H 2450 5950 50  0000 C CNN
	1    2450 5950
	1    0    0    -1  
$EndComp
Wire Wire Line
	3300 6150 3200 6150
Wire Wire Line
	3200 6450 3200 6250
Wire Wire Line
	3200 6250 3300 6250
Wire Wire Line
	2000 6150 2100 6150
Wire Wire Line
	2100 6150 2100 5950
Wire Wire Line
	2100 5950 2200 5950
Wire Wire Line
	2000 6250 2100 6250
Wire Wire Line
	2100 6250 2100 6450
$Comp
L TRANSFO2 T1
U 1 1 58CADB1A
P 5050 6200
F 0 "T1" H 5050 6700 50  0000 C CNN
F 1 "TRANSFO2" H 5050 5700 50  0000 C CNN
F 2 "Pin_Headers:Pin_Header_Angled_2x03" H 5050 6200 50  0001 C CNN
F 3 "" H 5050 6200 50  0000 C CNN
	1    5050 6200
	1    0    0    -1  
$EndComp
$Comp
L CONN_01X02 P3
U 1 1 58CB5500
P 3500 6200
F 0 "P3" H 3500 6350 50  0000 C CNN
F 1 "CONN_01X02" V 3600 6200 50  0000 C CNN
F 2 "Sockets_MOLEX_KK-System:Socket_MOLEX-KK-RM2-54mm_Lock_2pin_straight" H 3500 6200 50  0001 C CNN
F 3 "" H 3500 6200 50  0000 C CNN
	1    3500 6200
	1    0    0    -1  
$EndComp
$Comp
L CONN_01X02 P4
U 1 1 58CB6098
P 4250 6200
F 0 "P4" H 4250 6350 50  0000 C CNN
F 1 "CONN_01X02" V 4350 6200 50  0000 C CNN
F 2 "Wire_Pads:SolderWirePad_single_1-2mmDrill" H 4250 6200 50  0001 C CNN
F 3 "" H 4250 6200 50  0000 C CNN
	1    4250 6200
	-1   0    0    1   
$EndComp
Wire Wire Line
	4450 6150 4550 6150
Wire Wire Line
	4550 6150 4550 6000
Wire Wire Line
	4550 6000 4650 6000
Wire Wire Line
	4450 6250 4550 6250
Wire Wire Line
	4550 6250 4550 6400
Wire Wire Line
	4550 6400 4650 6400
Wire Wire Line
	5450 6600 5600 6600
Wire Wire Line
	5600 6600 5600 6350
Wire Wire Line
	5600 6350 5700 6350
Wire Wire Line
	5450 6300 5550 6300
Wire Wire Line
	5550 6300 5550 6250
Wire Wire Line
	5550 6250 5700 6250
Wire Wire Line
	5450 6100 5550 6100
Wire Wire Line
	5550 6100 5550 6150
Wire Wire Line
	5550 6150 5700 6150
Wire Wire Line
	5450 5800 5600 5800
Wire Wire Line
	5600 5800 5600 6050
Wire Wire Line
	5600 6050 5700 6050
Connection ~ 7350 4100
Connection ~ 7700 4100
$Comp
L Varistor VAR1
U 1 1 58DF11F6
P 3000 6200
F 0 "VAR1" H 2700 6300 60  0000 C CNN
F 1 "Varistor" H 2750 6400 60  0000 C CNN
F 2 "" H 1500 5600 60  0000 C CNN
F 3 "" H 1500 5600 60  0000 C CNN
	1    3000 6200
	1    0    0    -1  
$EndComp
Wire Wire Line
	2100 6450 3200 6450
Connection ~ 3000 6450
Wire Wire Line
	3200 6150 3200 5950
Wire Wire Line
	3200 5950 2700 5950
Connection ~ 3000 5950
$EndSCHEMATC
