ID,Physical,Note,Description,Digikey,Price
CASE,,Hamond Extruded Aluminum,"BOX EXTRUD ALUM 8.66X6.30X2.03""",HM905-ND,$26.51
Power,,"No fuse, no EMI",MODULE PWR ENTRY W/SWITCH SCREW,486-1073-ND,$9.71
Feet,,Rectangular (4),BUMPON TAPERED SQUARE .50X.12 GY ,SJ5508-8-ND ,$0.36
,,Goldpoint,Goldpoint 50K Stereo Step Attenuator,MV2-50K,$149.00
,,Goldpoint,"1.4"" Aluminum Knob",K1.4-S-SA,$14.00
,,Mouser,Mono Phone Jack with Transfer Circuit,502-13A,$5.65
,,Mouser 1.mH/2A,Common Mode Filter,562-851-02/1,$5.29
,,DIYCable.com,Female RCA Teflon/Copper/Gold Plate,Exodus EX-FRCA,$7.75
,,Front Panel Express Custom Panel,,,$46.00
