EESchema Schematic File Version 2
LIBS:power
LIBS:device
LIBS:transistors
LIBS:conn
LIBS:linear
LIBS:regul
LIBS:74xx
LIBS:cmos4000
LIBS:adc-dac
LIBS:memory
LIBS:xilinx
LIBS:microcontrollers
LIBS:dsp
LIBS:microchip
LIBS:analog_switches
LIBS:motorola
LIBS:texas
LIBS:intel
LIBS:audio
LIBS:interface
LIBS:digital-audio
LIBS:philips
LIBS:display
LIBS:cypress
LIBS:siliconi
LIBS:opto
LIBS:atmel
LIBS:contrib
LIBS:valves
EELAYER 25 0
EELAYER END
$Descr A4 11693 8268
encoding utf-8
Sheet 1 1
Title ""
Date ""
Rev ""
Comp ""
Comment1 ""
Comment2 ""
Comment3 ""
Comment4 ""
$EndDescr
$Comp
L JACK_2P J?
U 1 1 58FF3253
P 2550 3300
F 0 "J?" H 2200 3100 50  0000 C CNN
F 1 "JACK_2P" H 2400 3550 50  0000 C CNN
F 2 "" H 2550 3300 50  0000 C CNN
F 3 "" H 2550 3300 50  0000 C CNN
	1    2550 3300
	1    0    0    1   
$EndComp
$Comp
L CP1 C?
U 1 1 58FF3366
P 3550 3250
F 0 "C?" H 3575 3350 50  0000 L CNN
F 1 "CP1" H 3575 3150 50  0000 L CNN
F 2 "" H 3550 3250 50  0000 C CNN
F 3 "" H 3550 3250 50  0000 C CNN
	1    3550 3250
	0    1    1    0   
$EndComp
$Comp
L CP1 C?
U 1 1 58FF33E9
P 4800 3850
F 0 "C?" H 4825 3950 50  0000 L CNN
F 1 "CP1" H 4825 3750 50  0000 L CNN
F 2 "" H 4800 3850 50  0000 C CNN
F 3 "" H 4800 3850 50  0000 C CNN
	1    4800 3850
	1    0    0    -1  
$EndComp
$Comp
L CP1 C?
U 1 1 58FF340E
P 4550 2800
F 0 "C?" H 4575 2900 50  0000 L CNN
F 1 "CP1" H 4575 2700 50  0000 L CNN
F 2 "" H 4550 2800 50  0000 C CNN
F 3 "" H 4550 2800 50  0000 C CNN
	1    4550 2800
	0    -1   -1   0   
$EndComp
$Comp
L CP1 C?
U 1 1 58FF3430
P 6750 2450
F 0 "C?" H 6775 2550 50  0000 L CNN
F 1 "CP1" H 6775 2350 50  0000 L CNN
F 2 "" H 6750 2450 50  0000 C CNN
F 3 "" H 6750 2450 50  0000 C CNN
	1    6750 2450
	1    0    0    -1  
$EndComp
$Comp
L R R?
U 1 1 58FF345E
P 3800 3000
F 0 "R?" V 3880 3000 50  0000 C CNN
F 1 "R" V 3800 3000 50  0000 C CNN
F 2 "" V 3730 3000 50  0000 C CNN
F 3 "" H 3800 3000 50  0000 C CNN
	1    3800 3000
	1    0    0    -1  
$EndComp
$Comp
L R R?
U 1 1 58FF34E3
P 3800 3500
F 0 "R?" V 3880 3500 50  0000 C CNN
F 1 "R" V 3800 3500 50  0000 C CNN
F 2 "" V 3730 3500 50  0000 C CNN
F 3 "" H 3800 3500 50  0000 C CNN
	1    3800 3500
	1    0    0    -1  
$EndComp
$Comp
L R R?
U 1 1 58FF3516
P 4300 3700
F 0 "R?" V 4380 3700 50  0000 C CNN
F 1 "R" V 4300 3700 50  0000 C CNN
F 2 "" V 4230 3700 50  0000 C CNN
F 3 "" H 4300 3700 50  0000 C CNN
	1    4300 3700
	1    0    0    -1  
$EndComp
$Comp
L R R?
U 1 1 58FF355C
P 4300 2600
F 0 "R?" V 4380 2600 50  0000 C CNN
F 1 "R" V 4300 2600 50  0000 C CNN
F 2 "" V 4230 2600 50  0000 C CNN
F 3 "" H 4300 2600 50  0000 C CNN
	1    4300 2600
	1    0    0    -1  
$EndComp
$Comp
L R R?
U 1 1 58FF358D
P 4800 3550
F 0 "R?" V 4880 3550 50  0000 C CNN
F 1 "R" V 4800 3550 50  0000 C CNN
F 2 "" V 4730 3550 50  0000 C CNN
F 3 "" H 4800 3550 50  0000 C CNN
	1    4800 3550
	1    0    0    -1  
$EndComp
$Comp
L BC546 Q?
U 1 1 58FF3B10
P 4200 3250
F 0 "Q?" H 4400 3325 50  0000 L CNN
F 1 "BC546" H 4400 3250 50  0000 L CNN
F 2 "TO-92" H 4400 3175 50  0000 L CIN
F 3 "" H 4200 3250 50  0000 L CNN
	1    4200 3250
	1    0    0    -1  
$EndComp
$Comp
L D D?
U 1 1 58FF43B0
P 5250 2600
F 0 "D?" H 5250 2700 50  0000 C CNN
F 1 "D" H 5250 2500 50  0000 C CNN
F 2 "" H 5250 2600 50  0000 C CNN
F 3 "" H 5250 2600 50  0000 C CNN
	1    5250 2600
	0    -1   -1   0   
$EndComp
$Comp
L D D?
U 1 1 58FF4435
P 5250 3000
F 0 "D?" H 5250 3100 50  0000 C CNN
F 1 "D" H 5250 2900 50  0000 C CNN
F 2 "" H 5250 3000 50  0000 C CNN
F 3 "" H 5250 3000 50  0000 C CNN
	1    5250 3000
	0    -1   -1   0   
$EndComp
$Comp
L Q_NPN_BCE Q?
U 1 1 58FF448D
P 5350 3350
F 0 "Q?" H 5650 3400 50  0000 R CNN
F 1 "Q_NPN_BCE" H 5950 3300 50  0000 R CNN
F 2 "" H 5550 3450 50  0000 C CNN
F 3 "" H 5350 3350 50  0000 C CNN
	1    5350 3350
	1    0    0    -1  
$EndComp
$Comp
L BC516 Q?
U 1 1 58FF469C
P 6300 3600
F 0 "Q?" H 6500 3675 50  0000 L CNN
F 1 "BC516" H 6500 3600 50  0000 L CNN
F 2 "TO-92" H 6500 3525 50  0000 L CIN
F 3 "" H 6300 3600 50  0000 L CNN
	1    6300 3600
	0    -1   -1   0   
$EndComp
$Comp
L BC517 Q?
U 1 1 58FF4707
P 6300 2800
F 0 "Q?" H 6500 2875 50  0000 L CNN
F 1 "BC517" H 6500 2800 50  0000 L CNN
F 2 "TO-92" H 6500 2725 50  0000 L CIN
F 3 "" H 6300 2800 50  0000 L CNN
	1    6300 2800
	0    -1   -1   0   
$EndComp
$Comp
L R R?
U 1 1 58FF48B8
P 6600 2900
F 0 "R?" V 6680 2900 50  0000 C CNN
F 1 "R" V 6600 2900 50  0000 C CNN
F 2 "" V 6530 2900 50  0000 C CNN
F 3 "" H 6600 2900 50  0000 C CNN
	1    6600 2900
	1    0    0    -1  
$EndComp
$Comp
L R R?
U 1 1 58FF4ACF
P 6600 3300
F 0 "R?" V 6680 3300 50  0000 C CNN
F 1 "R" V 6600 3300 50  0000 C CNN
F 2 "" V 6530 3300 50  0000 C CNN
F 3 "" H 6600 3300 50  0000 C CNN
	1    6600 3300
	1    0    0    -1  
$EndComp
$Comp
L R R?
U 1 1 58FF4E00
P 5450 3750
F 0 "R?" V 5530 3750 50  0000 C CNN
F 1 "R" V 5450 3750 50  0000 C CNN
F 2 "" V 5380 3750 50  0000 C CNN
F 3 "" H 5450 3750 50  0000 C CNN
	1    5450 3750
	1    0    0    -1  
$EndComp
$Comp
L R R?
U 1 1 58FF4F99
P 5000 2450
F 0 "R?" V 5080 2450 50  0000 C CNN
F 1 "R" V 5000 2450 50  0000 C CNN
F 2 "" V 4930 2450 50  0000 C CNN
F 3 "" H 5000 2450 50  0000 C CNN
	1    5000 2450
	0    -1   -1   0   
$EndComp
$Comp
L R R?
U 1 1 58FF515E
P 6750 3700
F 0 "R?" V 6830 3700 50  0000 C CNN
F 1 "R" V 6750 3700 50  0000 C CNN
F 2 "" V 6680 3700 50  0000 C CNN
F 3 "" H 6750 3700 50  0000 C CNN
	1    6750 3700
	1    0    0    -1  
$EndComp
$Comp
L -12VA #PWR?
U 1 1 58FF5432
P 5200 3850
F 0 "#PWR?" H 5200 3700 50  0001 C CNN
F 1 "-12VA" H 5200 3990 50  0000 C CNN
F 2 "" H 5200 3850 50  0000 C CNN
F 3 "" H 5200 3850 50  0000 C CNN
	1    5200 3850
	1    0    0    -1  
$EndComp
$Comp
L +12VA #PWR?
U 1 1 58FF5470
P 4000 2250
F 0 "#PWR?" H 4000 2100 50  0001 C CNN
F 1 "+12VA" H 4000 2390 50  0000 C CNN
F 2 "" H 4000 2250 50  0000 C CNN
F 3 "" H 4000 2250 50  0000 C CNN
	1    4000 2250
	1    0    0    -1  
$EndComp
$Comp
L R R?
U 1 1 58FF5DA0
P 4600 2450
F 0 "R?" V 4680 2450 50  0000 C CNN
F 1 "R" V 4600 2450 50  0000 C CNN
F 2 "" V 4530 2450 50  0000 C CNN
F 3 "" H 4600 2450 50  0000 C CNN
	1    4600 2450
	0    -1   -1   0   
$EndComp
Wire Wire Line
	3000 3450 3250 3450
Wire Wire Line
	3250 3450 3250 4050
Wire Wire Line
	3000 3200 3200 3200
Wire Wire Line
	3200 3200 3200 3300
Wire Wire Line
	3200 3250 3400 3250
Wire Wire Line
	3200 3300 3000 3300
Connection ~ 3200 3250
Wire Wire Line
	3700 3250 4000 3250
Connection ~ 3800 3250
Wire Wire Line
	4300 2750 4300 3050
Wire Wire Line
	4300 3550 4300 3450
Wire Wire Line
	4800 3400 4800 3350
Wire Wire Line
	4800 3350 4700 3350
Wire Wire Line
	4700 3350 4700 3450
Wire Wire Line
	4700 3450 4300 3450
Wire Wire Line
	3250 4050 6750 4050
Wire Wire Line
	4300 4050 4300 3850
Wire Wire Line
	4800 4050 4800 4000
Connection ~ 4300 4050
Connection ~ 3800 4050
Wire Wire Line
	3800 2850 3800 2800
Wire Wire Line
	3800 2800 4400 2800
Connection ~ 4300 2800
Wire Wire Line
	3800 3150 3800 3350
Wire Wire Line
	3800 4050 3800 3650
Wire Wire Line
	5150 3350 4950 3350
Wire Wire Line
	4950 3350 4950 2800
Wire Wire Line
	4950 2800 4700 2800
Wire Wire Line
	5250 3150 5450 3150
Wire Wire Line
	6600 2750 6600 2700
Wire Wire Line
	6600 2700 6500 2700
Wire Wire Line
	6600 3450 6600 3500
Wire Wire Line
	6600 3500 6500 3500
Wire Wire Line
	6300 3800 5950 3800
Wire Wire Line
	6300 3000 6000 3000
Wire Wire Line
	6600 3150 6600 3050
Wire Wire Line
	5450 3600 5450 3550
Wire Wire Line
	6600 3100 6750 3100
Connection ~ 6600 3100
Wire Wire Line
	6750 2600 6750 3550
Connection ~ 6750 3100
Wire Wire Line
	6750 4050 6750 3850
Connection ~ 4800 4050
Wire Wire Line
	4300 2200 4300 2450
Wire Wire Line
	4300 2200 6050 2200
Wire Wire Line
	6050 2200 6050 2700
Wire Wire Line
	6050 2700 6100 2700
Connection ~ 4300 2350
Wire Wire Line
	4000 2250 4000 2350
Wire Wire Line
	5950 3800 5950 2800
Wire Wire Line
	5950 2800 5250 2800
Wire Wire Line
	5250 2750 5250 2850
Connection ~ 5250 2800
Wire Wire Line
	5150 2450 6000 2450
Wire Wire Line
	6000 2450 6000 3000
Connection ~ 5250 2450
Wire Wire Line
	4850 2450 4750 2450
Wire Wire Line
	4450 2450 4400 2450
Wire Wire Line
	4400 2450 4400 2350
Wire Wire Line
	4400 2350 4000 2350
Wire Wire Line
	4800 2450 4800 2250
Wire Wire Line
	4800 2250 6750 2250
Wire Wire Line
	6750 2250 6750 2300
Connection ~ 4800 2450
Wire Wire Line
	5200 3850 5200 3950
Wire Wire Line
	5200 3950 6050 3950
Wire Wire Line
	5450 3950 5450 3900
Wire Wire Line
	6050 3950 6050 3500
Wire Wire Line
	6050 3500 6100 3500
Connection ~ 5450 3950
$EndSCHEMATC
